{
    "KPlugin": {
        "Category": "Utilities",
        "Description": "Radial Tree Bundle Software Visualization", 
        "Icon": "text-x-c++src", 
        "Id": "kdevbundledtreeview", 
        "Name": "Radial Tree Bundle Software Visualization", 
        "ServiceTypes": [
            "KDevelop/Plugin"
        ]
    },
    "X-KDevelop-Category": "Global",
    "X-KDevelop-Mode": "GUI"
}
